{
  "collection": "@nestjs/schematics",
  "sourceRoot": "src",
  "projects": {
    "my-library": {
      "type": "library",
      "root": "libs/my-library",
      "entryFile": "index",
      "sourceRoot": "libs/my-library/src",
      "compilerOptions": {
        "tsConfigPath": "libs/my-library/tsconfig.lib.json"
      }
    },
    "constants": {
      "type": "library",
      "root": "libs/constants",
      "entryFile": "index",
      "sourceRoot": "libs/constants/src",
      "compilerOptions": {
        "tsConfigPath": "libs/constants/tsconfig.lib.json"
      }
    },
    "status": {
      "type": "library",
      "root": "libs/status",
      "entryFile": "index",
      "sourceRoot": "libs/status/src",
      "compilerOptions": {
        "tsConfigPath": "libs/status/tsconfig.lib.json"
      }
    },
    "utils": {
      "type": "library",
      "root": "libs/utils",
      "entryFile": "index",
      "sourceRoot": "libs/utils/src",
      "compilerOptions": {
        "tsConfigPath": "libs/utils/tsconfig.lib.json"
      }
    }
  },
  "compilerOptions": {
    "webpack": true
  }
}